%YAML 1.1
%TAG !u! tag:unity3d.com,2011:
--- !u!114 &11400000
MonoBehaviour:
  m_ObjectHideFlags: 0
  m_CorrespondingSourceObject: {fileID: 0}
  m_PrefabInstance: {fileID: 0}
  m_PrefabAsset: {fileID: 0}
  m_GameObject: {fileID: 0}
  m_Enabled: 1
  m_EditorHideFlags: 0
  m_Script: {fileID: 11500000, guid: c070567ac871e1a47a99c591857d2791, type: 3}
  m_Name: Enemy Difficulty
  m_EditorClassIdentifier: 
  _baseHealth: 1
  _baseSpeed: 3
  _maxSpeed: 10
  _baseTimeToRespawn: 3
  _minTimeToRespawn: 2
  _stepToIncreaseHealth: 1
  _stepToIncreaseSpeed: 1
  _stepToReduceRespawn: 1
