[api-updater (non-obsolete-error-filter)] 22.08.2021 20:25:32 : Starting C:/UnityProjects/2020.3.16f1/Editor/Data/Tools/ScriptUpdater/APIUpdater.NonObsoleteApiUpdaterDetector.exe
[api-updater (non-obsolete-error-filter)] 
----------------------------------
jit/startup time      : 585,532ms
moved types parse time: 47ms
candidates parse time : 0ms
C# parse time         : 410ms
candidates check time : 35ms
console write time    : 0ms

[api-updater (non-obsolete-error-filter)] 23.08.2021 22:03:18 : Starting C:/UnityProjects/2020.3.16f1/Editor/Data/Tools/ScriptUpdater/APIUpdater.NonObsoleteApiUpdaterDetector.exe
[api-updater (non-obsolete-error-filter)] 
----------------------------------
jit/startup time      : 91,0853ms
moved types parse time: 40ms
candidates parse time : 1ms
C# parse time         : 165ms
candidates check time : 31ms
console write time    : 0ms

[api-updater (non-obsolete-error-filter)] 23.08.2021 22:18:15 : Starting C:/UnityProjects/2020.3.16f1/Editor/Data/Tools/ScriptUpdater/APIUpdater.NonObsoleteApiUpdaterDetector.exe
[api-updater (non-obsolete-error-filter)] 
----------------------------------
jit/startup time      : 61,0566ms
moved types parse time: 42ms
candidates parse time : 1ms
C# parse time         : 161ms
candidates check time : 32ms
console write time    : 0ms

[api-updater (non-obsolete-error-filter)] 23.08.2021 22:18:21 : Starting C:/UnityProjects/2020.3.16f1/Editor/Data/Tools/ScriptUpdater/APIUpdater.NonObsoleteApiUpdaterDetector.exe
[api-updater (non-obsolete-error-filter)] 
----------------------------------
jit/startup time      : 61,0569ms
moved types parse time: 41ms
candidates parse time : 1ms
C# parse time         : 170ms
candidates check time : 25ms
console write time    : 0ms

[api-updater (non-obsolete-error-filter)] 23.08.2021 22:53:19 : Starting C:/UnityProjects/2020.3.16f1/Editor/Data/Tools/ScriptUpdater/APIUpdater.NonObsoleteApiUpdaterDetector.exe
[api-updater (non-obsolete-error-filter)] 
----------------------------------
jit/startup time      : 62,0565ms
moved types parse time: 42ms
candidates parse time : 1ms
C# parse time         : 153ms
candidates check time : 23ms
console write time    : 0ms

[api-updater (non-obsolete-error-filter)] 23.08.2021 23:20:36 : Starting C:/UnityProjects/2020.3.16f1/Editor/Data/Tools/ScriptUpdater/APIUpdater.NonObsoleteApiUpdaterDetector.exe
[api-updater (non-obsolete-error-filter)] 
----------------------------------
jit/startup time      : 62,0556ms
moved types parse time: 43ms
candidates parse time : 1ms
C# parse time         : 154ms
candidates check time : 27ms
console write time    : 0ms

[api-updater (non-obsolete-error-filter)] 23.08.2021 23:20:53 : Starting C:/UnityProjects/2020.3.16f1/Editor/Data/Tools/ScriptUpdater/APIUpdater.NonObsoleteApiUpdaterDetector.exe
[api-updater (non-obsolete-error-filter)] 
----------------------------------
jit/startup time      : 53,0488ms
moved types parse time: 41ms
candidates parse time : 1ms
C# parse time         : 159ms
candidates check time : 27ms
console write time    : 0ms

[api-updater (non-obsolete-error-filter)] 23.08.2021 23:32:41 : Starting C:/UnityProjects/2020.3.16f1/Editor/Data/Tools/ScriptUpdater/APIUpdater.NonObsoleteApiUpdaterDetector.exe
[api-updater (non-obsolete-error-filter)] 
----------------------------------
jit/startup time      : 64,0597ms
moved types parse time: 41ms
candidates parse time : 1ms
C# parse time         : 154ms
candidates check time : 26ms
console write time    : 0ms

[api-updater (non-obsolete-error-filter)] 25.08.2021 23:17:27 : Starting C:/UnityProjects/2020.3.16f1/Editor/Data/Tools/ScriptUpdater/APIUpdater.NonObsoleteApiUpdaterDetector.exe
[api-updater (non-obsolete-error-filter)] 
----------------------------------
jit/startup time      : 502,4566ms
moved types parse time: 42ms
candidates parse time : 1ms
C# parse time         : 181ms
candidates check time : 41ms
console write time    : 0ms

[api-updater (non-obsolete-error-filter)] 26.08.2021 21:26:47 : Starting C:/UnityProjects/2020.3.16f1/Editor/Data/Tools/ScriptUpdater/APIUpdater.NonObsoleteApiUpdaterDetector.exe
[api-updater (non-obsolete-error-filter)] 
----------------------------------
jit/startup time      : 523,4754ms
moved types parse time: 43ms
candidates parse time : 0ms
C# parse time         : 222ms
candidates check time : 26ms
console write time    : 0ms

[api-updater (non-obsolete-error-filter)] 26.08.2021 21:26:59 : Starting C:/UnityProjects/2020.3.16f1/Editor/Data/Tools/ScriptUpdater/APIUpdater.NonObsoleteApiUpdaterDetector.exe
[api-updater (non-obsolete-error-filter)] 
----------------------------------
jit/startup time      : 53,0482ms
moved types parse time: 41ms
candidates parse time : 1ms
C# parse time         : 163ms
candidates check time : 23ms
console write time    : 0ms

[api-updater (non-obsolete-error-filter)] 26.08.2021 21:27:08 : Starting C:/UnityProjects/2020.3.16f1/Editor/Data/Tools/ScriptUpdater/APIUpdater.NonObsoleteApiUpdaterDetector.exe
[api-updater (non-obsolete-error-filter)] 
----------------------------------
jit/startup time      : 53,0488ms
moved types parse time: 41ms
candidates parse time : 1ms
C# parse time         : 149ms
candidates check time : 22ms
console write time    : 0ms

[api-updater (non-obsolete-error-filter)] 26.08.2021 21:27:18 : Starting C:/UnityProjects/2020.3.16f1/Editor/Data/Tools/ScriptUpdater/APIUpdater.NonObsoleteApiUpdaterDetector.exe
[api-updater (non-obsolete-error-filter)] 
----------------------------------
jit/startup time      : 57,0524ms
moved types parse time: 42ms
candidates parse time : 1ms
C# parse time         : 160ms
candidates check time : 24ms
console write time    : 0ms

[api-updater (non-obsolete-error-filter)] 26.08.2021 22:14:31 : Starting C:/UnityProjects/2020.3.16f1/Editor/Data/Tools/ScriptUpdater/APIUpdater.NonObsoleteApiUpdaterDetector.exe
[api-updater (non-obsolete-error-filter)] 
----------------------------------
jit/startup time      : 56,0505ms
moved types parse time: 42ms
candidates parse time : 0ms
C# parse time         : 155ms
candidates check time : 36ms
console write time    : 0ms

[api-updater (non-obsolete-error-filter)] 27.08.2021 0:51:13 : Starting C:/UnityProjects/2020.3.16f1/Editor/Data/Tools/ScriptUpdater/APIUpdater.NonObsoleteApiUpdaterDetector.exe
[api-updater (non-obsolete-error-filter)] 
----------------------------------
jit/startup time      : 58,0565ms
moved types parse time: 43ms
candidates parse time : 0ms
C# parse time         : 143ms
candidates check time : 32ms
console write time    : 0ms

